{"response":{"status":"ok","userTier":"developer","total":2146143,"startIndex":1,"pageSize":10,"currentPage":1,"pages":214615,"orderBy":"newest","results":[{"id":"football/live/2019/oct/13/chelsea-arsenal-womens-super-league-live","type":"liveblog","sectionId":"football","sectionName":"Football","webPublicationDate":"2019-10-13T15:43:51Z","webTitle":"Chelsea v Arsenal: Women's Super League – live!","webUrl":"https://www.theguardian.com/football/live/2019/oct/13/chelsea-arsenal-womens-super-league-live","apiUrl":"https://content.guardianapis.com/football/live/2019/oct/13/chelsea-arsenal-womens-super-league-live","isHosted":false,"pillarId":"pillar/sport","pillarName":"Sport"},{"id":"us-news/2019/oct/13/portland-antifa-activist-killed-hit-and-run","type":"article","sectionId":"us-news","sectionName":"US news","webPublicationDate":"2019-10-13T15:40:37Z","webTitle":"Portland antifa activist killed in hit and run, police say","webUrl":"https://www.theguardian.com/us-news/2019/oct/13/portland-antifa-activist-killed-hit-and-run","apiUrl":"https://content.guardianapis.com/us-news/2019/oct/13/portland-antifa-activist-killed-hit-and-run","isHosted":false,"pillarId":"pillar/news","pillarName":"News"},{"id":"commentisfree/2019/oct/13/universities-crisis-racism-not-political-correctness","type":"article","sectionId":"commentisfree","sectionName":"Opinion","webPublicationDate":"2019-10-13T15:31:10Z","webTitle":"There is a crisis on campuses – but it’s about racism, not free speech | Nesrine Malik","webUrl":"https://www.theguardian.com/commentisfree/2019/oct/13/universities-crisis-racism-not-political-correctness","apiUrl":"https://content.guardianapis.com/commentisfree/2019/oct/13/universities-crisis-racism-not-political-correctness","isHosted":false,"pillarId":"pillar/opinion","pillarName":"Opinion"},{"id":"film/2019/oct/13/the-irishman-martin-scorsese-defends-decision-to-go-with-netflix","type":"article","sectionId":"film","sectionName":"Film","webPublicationDate":"2019-10-13T15:30:34Z","webTitle":"Martin Scorsese defends decision to make deal with Netflix for The Irishman","webUrl":"https://www.theguardian.com/film/2019/oct/13/the-irishman-martin-scorsese-defends-decision-to-go-with-netflix","apiUrl":"https://content.guardianapis.com/film/2019/oct/13/the-irishman-martin-scorsese-defends-decision-to-go-with-netflix","isHosted":false,"pillarId":"pillar/arts","pillarName":"Arts"},{"id":"business/2019/oct/13/questions-mps-must-ask-those-behind-the-thomas-cook-collapse","type":"article","sectionId":"business","sectionName":"Business","webPublicationDate":"2019-10-13T15:21:23Z","webTitle":"Questions MPs must ask those behind the Thomas Cook collapse","webUrl":"https://www.theguardian.com/business/2019/oct/13/questions-mps-must-ask-those-behind-the-thomas-cook-collapse","apiUrl":"https://content.guardianapis.com/business/2019/oct/13/questions-mps-must-ask-those-behind-the-thomas-cook-collapse","isHosted":false,"pillarId":"pillar/news","pillarName":"News"},{"id":"us-news/2019/oct/13/trump-impeachment-esper-pentagon-house-subpoena-ukraine","type":"article","sectionId":"us-news","sectionName":"US news","webPublicationDate":"2019-10-13T14:57:17Z","webTitle":"Trump impeachment: Esper indicates Pentagon will co-operate with inquiry","webUrl":"https://www.theguardian.com/us-news/2019/oct/13/trump-impeachment-esper-pentagon-house-subpoena-ukraine","apiUrl":"https://content.guardianapis.com/us-news/2019/oct/13/trump-impeachment-esper-pentagon-house-subpoena-ukraine","isHosted":false,"pillarId":"pillar/news","pillarName":"News"},{"id":"sport/2019/oct/13/brigid-kosgei-world-marathon-record-paula-radcliffe-chicago","type":"article","sectionId":"sport","sectionName":"Sport","webPublicationDate":"2019-10-13T14:52:19Z","webTitle":"Brigid Kosgei smashes Paula Radcliffe’s world marathon record by 81 seconds","webUrl":"https://www.theguardian.com/sport/2019/oct/13/brigid-kosgei-world-marathon-record-paula-radcliffe-chicago","apiUrl":"https://content.guardianapis.com/sport/2019/oct/13/brigid-kosgei-world-marathon-record-paula-radcliffe-chicago","isHosted":false,"pillarId":"pillar/sport","pillarName":"Sport"},{"id":"tv-and-radio/2019/oct/13/stephen-moore-obituary","type":"article","sectionId":"tv-and-radio","sectionName":"Television & radio","webPublicationDate":"2019-10-13T14:51:26Z","webTitle":"Stephen Moore obituary","webUrl":"https://www.theguardian.com/tv-and-radio/2019/oct/13/stephen-moore-obituary","apiUrl":"https://content.guardianapis.com/tv-and-radio/2019/oct/13/stephen-moore-obituary","isHosted":false,"pillarId":"pillar/arts","pillarName":"Arts"},{"id":"world/2019/oct/13/hong-kong-protesters-flashmobs-blossom-everywhere","type":"article","sectionId":"world","sectionName":"World news","webPublicationDate":"2019-10-13T14:49:07Z","webTitle":"Hong Kong protesters use new flashmob strategy to avoid arrest","webUrl":"https://www.theguardian.com/world/2019/oct/13/hong-kong-protesters-flashmobs-blossom-everywhere","apiUrl":"https://content.guardianapis.com/world/2019/oct/13/hong-kong-protesters-flashmobs-blossom-everywhere","isHosted":false,"pillarId":"pillar/news","pillarName":"News"},{"id":"uk-news/2019/oct/13/lake-district-authority-loses-no-confidence-vote-over-path-decision","type":"article","sectionId":"uk-news","sectionName":"UK news","webPublicationDate":"2019-10-13T14:34:41Z","webTitle":"Locals accuse Lake District authority of turning region into a 'theme park'","webUrl":"https://www.theguardian.com/uk-news/2019/oct/13/lake-district-authority-loses-no-confidence-vote-over-path-decision","apiUrl":"https://content.guardianapis.com/uk-news/2019/oct/13/lake-district-authority-loses-no-confidence-vote-over-path-decision","isHosted":false,"pillarId":"pillar/news","pillarName":"News"}]}}
